; Engine configuration file.
; It's best edited using the editor UI and not directly,
; since the parameters that go here are not all obvious.
;
; Format:
;   [section] ; section goes between []
;   param=value ; assign values to parameters

config_version=4

_global_script_classes=[  ]
_global_script_class_icons={

}

[application]

config/name="platform3"
run/main_scene="res://Scenes/MainScreen.tscn"
config/icon="res://icon.png"

[autoload]

MainScreen="*res://Scripts/MainScreen.gd"

[display]

window/size/height=768

[input_devices]

pointing/emulate_touch_from_mouse=true

[locale]

translation_remaps={

}
translations=PoolStringArray( "res://translates/translatetest.en.translation", "res://translates/translatetest.ru.translation" )
locale_filter=[ 1, [ "en", "ru" ] ]

[rendering]

environment/default_environment="res://default_env.tres"
